<svg width="202" height="44" viewBox="0 0 202 44" fill="none" xmlns="http://www.w3.org/2000/svg">
<path d="M0 8C0 3.58172 3.58172 0 8 0H36C40.4183 0 44 3.58172 44 8V36C44 40.4183 40.4183 44 36 44H8C3.58172 44 0 40.4183 0 36V8Z" fill="#A492FF"/>
<path d="M20.5156 28L19.6875 25.2812H15.5234L14.6953 28H12.0859L16.1172 16.5312H19.0781L23.125 28H20.5156ZM19.1094 23.25L18.2812 20.5938C18.2292 20.4167 18.1589 20.1901 18.0703 19.9141C17.987 19.6328 17.901 19.349 17.8125 19.0625C17.7292 18.7708 17.6615 18.5182 17.6094 18.3047C17.5573 18.5182 17.4844 18.7839 17.3906 19.1016C17.3021 19.4141 17.2161 19.7109 17.1328 19.9922C17.0495 20.2734 16.9896 20.474 16.9531 20.5938L16.1328 23.25H19.1094ZM26.9531 28H24.5703V16.5781H31.1172V18.5625H26.9531V21.5078H30.8281V23.4844H26.9531V28Z" fill="white"/>
<path d="M60.4297 18.5L59.6016 15.7812H55.4375L54.6094 18.5H52L56.0312 7.03125H58.9922L63.0391 18.5H60.4297ZM59.0234 13.75L58.1953 11.0938C58.1432 10.9167 58.0729 10.6901 57.9844 10.4141C57.901 10.1328 57.8151 9.84896 57.7266 9.5625C57.6432 9.27083 57.5755 9.01823 57.5234 8.80469C57.4714 9.01823 57.3984 9.28385 57.3047 9.60156C57.2161 9.91406 57.1302 10.2109 57.0469 10.4922C56.9635 10.7734 56.9036 10.974 56.8672 11.0938L56.0469 13.75H59.0234ZM69.2578 9.60156C70.1901 9.60156 70.9401 9.85677 71.5078 10.3672C72.0755 10.8724 72.3594 11.6849 72.3594 12.8047V18.5H69.9766V13.3984C69.9766 12.7734 69.862 12.3021 69.6328 11.9844C69.4089 11.6667 69.0547 11.5078 68.5703 11.5078C67.8411 11.5078 67.3438 11.7552 67.0781 12.25C66.8125 12.7448 66.6797 13.4583 66.6797 14.3906V18.5H64.2969V9.76562H66.1172L66.4375 10.8828H66.5703C66.7578 10.5807 66.9896 10.3359 67.2656 10.1484C67.5469 9.96094 67.8568 9.82292 68.1953 9.73438C68.5391 9.64583 68.8932 9.60156 69.2578 9.60156ZM77.1953 9.76562V18.5H74.8125V9.76562H77.1953ZM76.0078 6.34375C76.362 6.34375 76.6667 6.42708 76.9219 6.59375C77.1771 6.75521 77.3047 7.0599 77.3047 7.50781C77.3047 7.95052 77.1771 8.25781 76.9219 8.42969C76.6667 8.59635 76.362 8.67969 76.0078 8.67969C75.6484 8.67969 75.3411 8.59635 75.0859 8.42969C74.8359 8.25781 74.7109 7.95052 74.7109 7.50781C74.7109 7.0599 74.8359 6.75521 75.0859 6.59375C75.3411 6.42708 75.6484 6.34375 76.0078 6.34375ZM89.9609 9.60156C90.9505 9.60156 91.6979 9.85677 92.2031 10.3672C92.7135 10.8724 92.9688 11.6849 92.9688 12.8047V18.5H90.5781V13.3984C90.5781 12.7734 90.4714 12.3021 90.2578 11.9844C90.0443 11.6667 89.7135 11.5078 89.2656 11.5078C88.6354 11.5078 88.1875 11.7344 87.9219 12.1875C87.6562 12.6354 87.5234 13.2786 87.5234 14.1172V18.5H85.1406V13.3984C85.1406 12.9818 85.0938 12.6328 85 12.3516C84.9062 12.0703 84.763 11.8594 84.5703 11.7188C84.3776 11.5781 84.1302 11.5078 83.8281 11.5078C83.3854 11.5078 83.0365 11.6198 82.7812 11.8438C82.5312 12.0625 82.3516 12.388 82.2422 12.8203C82.138 13.2474 82.0859 13.7708 82.0859 14.3906V18.5H79.7031V9.76562H81.5234L81.8438 10.8828H81.9766C82.1536 10.5807 82.375 10.3359 82.6406 10.1484C82.9115 9.96094 83.2083 9.82292 83.5312 9.73438C83.8542 9.64583 84.1823 9.60156 84.5156 9.60156C85.1562 9.60156 85.6979 9.70573 86.1406 9.91406C86.5885 10.1224 86.9323 10.4453 87.1719 10.8828H87.3828C87.6432 10.4349 88.0104 10.1094 88.4844 9.90625C88.9635 9.70312 89.4557 9.60156 89.9609 9.60156ZM99 9.58594C100.172 9.58594 101.07 9.84115 101.695 10.3516C102.32 10.862 102.633 11.638 102.633 12.6797V18.5H100.969L100.508 17.3125H100.445C100.195 17.625 99.9401 17.8802 99.6797 18.0781C99.4193 18.276 99.1198 18.4219 98.7812 18.5156C98.4427 18.6094 98.0312 18.6562 97.5469 18.6562C97.0312 18.6562 96.5677 18.5573 96.1562 18.3594C95.75 18.1615 95.4297 17.8594 95.1953 17.4531C94.9609 17.0417 94.8438 16.5208 94.8438 15.8906C94.8438 14.9635 95.1693 14.2812 95.8203 13.8438C96.4714 13.401 97.4479 13.1562 98.75 13.1094L100.266 13.0625V12.6797C100.266 12.2214 100.146 11.8854 99.9062 11.6719C99.6667 11.4583 99.3333 11.3516 98.9062 11.3516C98.4844 11.3516 98.0703 11.4115 97.6641 11.5312C97.2578 11.651 96.8516 11.8021 96.4453 11.9844L95.6562 10.375C96.1198 10.1302 96.638 9.9375 97.2109 9.79688C97.7891 9.65625 98.3854 9.58594 99 9.58594ZM100.266 14.4531L99.3438 14.4844C98.5729 14.5052 98.0365 14.6432 97.7344 14.8984C97.4375 15.1536 97.2891 15.4896 97.2891 15.9062C97.2891 16.2708 97.3958 16.5312 97.6094 16.6875C97.8229 16.8385 98.1016 16.9141 98.4453 16.9141C98.9557 16.9141 99.3854 16.763 99.7344 16.4609C100.089 16.1589 100.266 15.7292 100.266 15.1719V14.4531ZM108.773 16.7578C109.034 16.7578 109.286 16.7318 109.531 16.6797C109.781 16.6276 110.029 16.5625 110.273 16.4844V18.2578C110.018 18.3724 109.701 18.4661 109.32 18.5391C108.945 18.6172 108.534 18.6562 108.086 18.6562C107.565 18.6562 107.096 18.5729 106.68 18.4062C106.268 18.2344 105.943 17.9401 105.703 17.5234C105.469 17.1016 105.352 16.5156 105.352 15.7656V11.5547H104.211V10.5469L105.523 9.75L106.211 7.90625H107.734V9.76562H110.18V11.5547H107.734V15.7656C107.734 16.099 107.828 16.349 108.016 16.5156C108.208 16.6771 108.461 16.7578 108.773 16.7578ZM115.648 9.60156C116.456 9.60156 117.151 9.75781 117.734 10.0703C118.318 10.3776 118.768 10.8255 119.086 11.4141C119.404 12.0026 119.562 12.7214 119.562 13.5703V14.7266H113.93C113.956 15.3984 114.156 15.9271 114.531 16.3125C114.911 16.6927 115.438 16.8828 116.109 16.8828C116.667 16.8828 117.177 16.8255 117.641 16.7109C118.104 16.5964 118.581 16.4245 119.07 16.1953V18.0391C118.638 18.2526 118.185 18.4089 117.711 18.5078C117.242 18.6068 116.672 18.6562 116 18.6562C115.125 18.6562 114.349 18.4948 113.672 18.1719C113 17.849 112.471 17.3568 112.086 16.6953C111.706 16.0339 111.516 15.2005 111.516 14.1953C111.516 13.1745 111.688 12.3255 112.031 11.6484C112.38 10.9661 112.865 10.4557 113.484 10.1172C114.104 9.77344 114.826 9.60156 115.648 9.60156ZM115.664 11.2969C115.201 11.2969 114.815 11.4453 114.508 11.7422C114.206 12.0391 114.031 12.5052 113.984 13.1406H117.328C117.323 12.7865 117.258 12.4714 117.133 12.1953C117.013 11.9193 116.831 11.7005 116.586 11.5391C116.346 11.3776 116.039 11.2969 115.664 11.2969ZM124.266 18.6562C123.292 18.6562 122.497 18.276 121.883 17.5156C121.273 16.75 120.969 15.6276 120.969 14.1484C120.969 12.6536 121.279 11.5234 121.898 10.7578C122.518 9.98698 123.328 9.60156 124.328 9.60156C124.745 9.60156 125.112 9.65885 125.43 9.77344C125.747 9.88802 126.021 10.0417 126.25 10.2344C126.484 10.4271 126.682 10.6432 126.844 10.8828H126.922C126.891 10.7161 126.852 10.4714 126.805 10.1484C126.763 9.82031 126.742 9.48438 126.742 9.14062V6.34375H129.133V18.5H127.305L126.844 17.3672H126.742C126.591 17.6068 126.401 17.8255 126.172 18.0234C125.948 18.2161 125.68 18.3698 125.367 18.4844C125.055 18.599 124.688 18.6562 124.266 18.6562ZM125.102 16.7578C125.753 16.7578 126.211 16.5651 126.477 16.1797C126.747 15.7891 126.891 15.2031 126.906 14.4219V14.1641C126.906 13.3151 126.776 12.6667 126.516 12.2188C126.255 11.7656 125.771 11.5391 125.062 11.5391C124.536 11.5391 124.125 11.7656 123.828 12.2188C123.531 12.6719 123.383 13.3255 123.383 14.1797C123.383 15.0339 123.531 15.6771 123.828 16.1094C124.13 16.5417 124.555 16.7578 125.102 16.7578ZM134.195 18.5H131.812V7.07812H138.359V9.0625H134.195V12.0078H138.07V13.9844H134.195V18.5ZM145.281 9.60156C145.401 9.60156 145.539 9.60938 145.695 9.625C145.857 9.63542 145.987 9.65104 146.086 9.67188L145.906 11.9062C145.828 11.8802 145.716 11.862 145.57 11.8516C145.43 11.8359 145.307 11.8281 145.203 11.8281C144.896 11.8281 144.596 11.8672 144.305 11.9453C144.018 12.0234 143.76 12.151 143.531 12.3281C143.302 12.5 143.12 12.7292 142.984 13.0156C142.854 13.2969 142.789 13.6432 142.789 14.0547V18.5H140.406V9.76562H142.211L142.562 11.2344H142.68C142.852 10.9375 143.065 10.6667 143.32 10.4219C143.581 10.1719 143.875 9.97396 144.203 9.82812C144.536 9.67708 144.896 9.60156 145.281 9.60156ZM151.273 9.60156C152.081 9.60156 152.776 9.75781 153.359 10.0703C153.943 10.3776 154.393 10.8255 154.711 11.4141C155.029 12.0026 155.188 12.7214 155.188 13.5703V14.7266H149.555C149.581 15.3984 149.781 15.9271 150.156 16.3125C150.536 16.6927 151.062 16.8828 151.734 16.8828C152.292 16.8828 152.802 16.8255 153.266 16.7109C153.729 16.5964 154.206 16.4245 154.695 16.1953V18.0391C154.263 18.2526 153.81 18.4089 153.336 18.5078C152.867 18.6068 152.297 18.6562 151.625 18.6562C150.75 18.6562 149.974 18.4948 149.297 18.1719C148.625 17.849 148.096 17.3568 147.711 16.6953C147.331 16.0339 147.141 15.2005 147.141 14.1953C147.141 13.1745 147.312 12.3255 147.656 11.6484C148.005 10.9661 148.49 10.4557 149.109 10.1172C149.729 9.77344 150.451 9.60156 151.273 9.60156ZM151.289 11.2969C150.826 11.2969 150.44 11.4453 150.133 11.7422C149.831 12.0391 149.656 12.5052 149.609 13.1406H152.953C152.948 12.7865 152.883 12.4714 152.758 12.1953C152.638 11.9193 152.456 11.7005 152.211 11.5391C151.971 11.3776 151.664 11.2969 151.289 11.2969ZM159.891 18.6562C158.917 18.6562 158.122 18.276 157.508 17.5156C156.898 16.75 156.594 15.6276 156.594 14.1484C156.594 12.6536 156.904 11.5234 157.523 10.7578C158.143 9.98698 158.953 9.60156 159.953 9.60156C160.37 9.60156 160.737 9.65885 161.055 9.77344C161.372 9.88802 161.646 10.0417 161.875 10.2344C162.109 10.4271 162.307 10.6432 162.469 10.8828H162.547C162.516 10.7161 162.477 10.4714 162.43 10.1484C162.388 9.82031 162.367 9.48438 162.367 9.14062V6.34375H164.758V18.5H162.93L162.469 17.3672H162.367C162.216 17.6068 162.026 17.8255 161.797 18.0234C161.573 18.2161 161.305 18.3698 160.992 18.4844C160.68 18.599 160.312 18.6562 159.891 18.6562ZM160.727 16.7578C161.378 16.7578 161.836 16.5651 162.102 16.1797C162.372 15.7891 162.516 15.2031 162.531 14.4219V14.1641C162.531 13.3151 162.401 12.6667 162.141 12.2188C161.88 11.7656 161.396 11.5391 160.688 11.5391C160.161 11.5391 159.75 11.7656 159.453 12.2188C159.156 12.6719 159.008 13.3255 159.008 14.1797C159.008 15.0339 159.156 15.6771 159.453 16.1094C159.755 16.5417 160.18 16.7578 160.727 16.7578Z" fill="#EFEFEF"/>
<path d="M55.999 30.8848C56.8923 30.8848 57.5553 31.0853 57.9883 31.4863C58.4212 31.8874 58.6377 32.5277 58.6377 33.4072V38.5H57.8105L57.5918 37.3926H57.5371C57.3275 37.666 57.1087 37.8962 56.8809 38.083C56.653 38.2653 56.3887 38.4043 56.0879 38.5C55.7917 38.5911 55.4271 38.6367 54.9941 38.6367C54.5384 38.6367 54.1328 38.557 53.7773 38.3975C53.4264 38.238 53.1484 37.9964 52.9434 37.6729C52.7428 37.3493 52.6426 36.9391 52.6426 36.4424C52.6426 35.695 52.9388 35.1208 53.5312 34.7197C54.1237 34.3187 55.026 34.0999 56.2383 34.0635L57.5303 34.0088V33.5508C57.5303 32.9036 57.3913 32.4502 57.1133 32.1904C56.8353 31.9307 56.4434 31.8008 55.9375 31.8008C55.5456 31.8008 55.1719 31.8577 54.8164 31.9717C54.4609 32.0856 54.1237 32.2201 53.8047 32.375L53.4561 31.5137C53.7933 31.3405 54.1807 31.1924 54.6182 31.0693C55.0557 30.9463 55.516 30.8848 55.999 30.8848ZM57.5166 34.8086L56.375 34.8564C55.4408 34.8929 54.7822 35.0456 54.3994 35.3145C54.0166 35.5833 53.8252 35.9639 53.8252 36.4561C53.8252 36.8844 53.9551 37.2012 54.2148 37.4062C54.4746 37.6113 54.8187 37.7139 55.2471 37.7139C55.9124 37.7139 56.457 37.5293 56.8809 37.1602C57.3047 36.791 57.5166 36.2373 57.5166 35.499V34.8086ZM64.5234 30.8711C65.4121 30.8711 66.0843 31.0898 66.54 31.5273C66.9958 31.9603 67.2236 32.6576 67.2236 33.6191V38.5H66.1025V33.6943C66.1025 33.07 65.959 32.6029 65.6719 32.293C65.3893 31.9831 64.9541 31.8281 64.3662 31.8281C63.5368 31.8281 62.9535 32.0628 62.6162 32.5322C62.279 33.0016 62.1104 33.6829 62.1104 34.5762V38.5H60.9756V31.0078H61.8916L62.0625 32.0879H62.124C62.2835 31.8236 62.4863 31.6025 62.7324 31.4248C62.9785 31.2425 63.2542 31.1058 63.5596 31.0146C63.8649 30.9189 64.1862 30.8711 64.5234 30.8711ZM70.6963 31.0078V38.5H69.5615V31.0078H70.6963ZM70.1426 28.2051C70.3294 28.2051 70.4889 28.2666 70.6211 28.3896C70.7578 28.5081 70.8262 28.695 70.8262 28.9502C70.8262 29.2008 70.7578 29.3877 70.6211 29.5107C70.4889 29.6338 70.3294 29.6953 70.1426 29.6953C69.9466 29.6953 69.7826 29.6338 69.6504 29.5107C69.5228 29.3877 69.459 29.2008 69.459 28.9502C69.459 28.695 69.5228 28.5081 69.6504 28.3896C69.7826 28.2666 69.9466 28.2051 70.1426 28.2051ZM81.2373 30.8711C82.0622 30.8711 82.6842 31.0876 83.1035 31.5205C83.5228 31.9489 83.7324 32.6393 83.7324 33.5918V38.5H82.6113V33.6465C82.6113 33.0404 82.4792 32.5869 82.2148 32.2861C81.9551 31.9808 81.5677 31.8281 81.0527 31.8281C80.3281 31.8281 79.8018 32.0378 79.4736 32.457C79.1455 32.8763 78.9814 33.4938 78.9814 34.3096V38.5H77.8535V33.6465C77.8535 33.2409 77.7943 32.9036 77.6758 32.6348C77.5618 32.3659 77.3887 32.1654 77.1562 32.0332C76.9284 31.8965 76.639 31.8281 76.2881 31.8281C75.7913 31.8281 75.3926 31.9307 75.0918 32.1357C74.791 32.3408 74.5723 32.6462 74.4355 33.0518C74.3034 33.4528 74.2373 33.9473 74.2373 34.5352V38.5H73.1025V31.0078H74.0186L74.1895 32.0674H74.251C74.4014 31.8076 74.5905 31.5889 74.8184 31.4111C75.0462 31.2334 75.3014 31.099 75.584 31.0078C75.8665 30.9167 76.1673 30.8711 76.4863 30.8711C77.056 30.8711 77.5322 30.9782 77.915 31.1924C78.3024 31.402 78.5827 31.7233 78.7559 32.1562H78.8174C79.0635 31.7233 79.4007 31.402 79.8291 31.1924C80.2575 30.9782 80.7269 30.8711 81.2373 30.8711ZM88.8662 30.8848C89.7594 30.8848 90.4225 31.0853 90.8555 31.4863C91.2884 31.8874 91.5049 32.5277 91.5049 33.4072V38.5H90.6777L90.459 37.3926H90.4043C90.1947 37.666 89.9759 37.8962 89.748 38.083C89.5202 38.2653 89.2559 38.4043 88.9551 38.5C88.6589 38.5911 88.2943 38.6367 87.8613 38.6367C87.4056 38.6367 87 38.557 86.6445 38.3975C86.2936 38.238 86.0156 37.9964 85.8105 37.6729C85.61 37.3493 85.5098 36.9391 85.5098 36.4424C85.5098 35.695 85.806 35.1208 86.3984 34.7197C86.9909 34.3187 87.8932 34.0999 89.1055 34.0635L90.3975 34.0088V33.5508C90.3975 32.9036 90.2585 32.4502 89.9805 32.1904C89.7025 31.9307 89.3105 31.8008 88.8047 31.8008C88.4128 31.8008 88.0391 31.8577 87.6836 31.9717C87.3281 32.0856 86.9909 32.2201 86.6719 32.375L86.3232 31.5137C86.6605 31.3405 87.0479 31.1924 87.4854 31.0693C87.9229 30.9463 88.3831 30.8848 88.8662 30.8848ZM90.3838 34.8086L89.2422 34.8564C88.3079 34.8929 87.6494 35.0456 87.2666 35.3145C86.8838 35.5833 86.6924 35.9639 86.6924 36.4561C86.6924 36.8844 86.8223 37.2012 87.082 37.4062C87.3418 37.6113 87.6859 37.7139 88.1143 37.7139C88.7796 37.7139 89.3242 37.5293 89.748 37.1602C90.1719 36.791 90.3838 36.2373 90.3838 35.499V34.8086ZM96.2627 37.707C96.4495 37.707 96.641 37.6911 96.8369 37.6592C97.0329 37.6273 97.1924 37.5885 97.3154 37.543V38.4248C97.1833 38.484 96.9987 38.5342 96.7617 38.5752C96.5293 38.6162 96.3014 38.6367 96.0781 38.6367C95.6816 38.6367 95.3216 38.5684 94.998 38.4316C94.6745 38.2904 94.4147 38.0534 94.2188 37.7207C94.0273 37.388 93.9316 36.9277 93.9316 36.3398V31.8965H92.8652V31.3428L93.9385 30.8984L94.3896 29.2715H95.0732V31.0078H97.2676V31.8965H95.0732V36.3057C95.0732 36.7751 95.1803 37.126 95.3945 37.3584C95.6133 37.5908 95.9027 37.707 96.2627 37.707ZM101.718 30.8711C102.356 30.8711 102.903 31.0124 103.358 31.2949C103.814 31.5775 104.163 31.974 104.404 32.4844C104.646 32.9902 104.767 33.5827 104.767 34.2617V34.9658H99.5918C99.6055 35.8454 99.8242 36.5153 100.248 36.9756C100.672 37.4359 101.269 37.666 102.039 37.666C102.513 37.666 102.932 37.6227 103.297 37.5361C103.661 37.4495 104.04 37.3219 104.432 37.1533V38.1514C104.053 38.32 103.677 38.443 103.304 38.5205C102.935 38.598 102.497 38.6367 101.991 38.6367C101.271 38.6367 100.642 38.4909 100.104 38.1992C99.5713 37.903 99.1566 37.4701 98.8604 36.9004C98.5641 36.3307 98.416 35.6335 98.416 34.8086C98.416 34.002 98.5505 33.3047 98.8193 32.7168C99.0928 32.1243 99.4756 31.6686 99.9678 31.3496C100.465 31.0306 101.048 30.8711 101.718 30.8711ZM101.704 31.8008C101.098 31.8008 100.615 31.999 100.255 32.3955C99.8949 32.792 99.6807 33.3457 99.6123 34.0566H103.577C103.573 33.61 103.502 33.2181 103.365 32.8809C103.233 32.5391 103.03 32.2747 102.757 32.0879C102.483 31.8965 102.132 31.8008 101.704 31.8008ZM109.36 38.6367C108.412 38.6367 107.66 38.3132 107.104 37.666C106.553 37.0189 106.277 36.0573 106.277 34.7812C106.277 33.4915 106.56 32.5186 107.125 31.8623C107.69 31.2015 108.442 30.8711 109.381 30.8711C109.777 30.8711 110.124 30.9235 110.42 31.0283C110.716 31.1331 110.971 31.2744 111.186 31.4521C111.4 31.6253 111.58 31.8236 111.726 32.0469H111.808C111.789 31.9056 111.771 31.7119 111.753 31.4658C111.735 31.2197 111.726 31.0192 111.726 30.8643V27.8633H112.86V38.5H111.944L111.773 37.4336H111.726C111.584 37.6569 111.404 37.8597 111.186 38.042C110.971 38.2243 110.714 38.3701 110.413 38.4795C110.117 38.5843 109.766 38.6367 109.36 38.6367ZM109.538 37.6934C110.34 37.6934 110.908 37.4655 111.24 37.0098C111.573 36.554 111.739 35.8773 111.739 34.9795V34.7744C111.739 33.8219 111.58 33.0905 111.261 32.5801C110.946 32.0697 110.372 31.8145 109.538 31.8145C108.841 31.8145 108.319 32.0833 107.973 32.6211C107.626 33.1543 107.453 33.8835 107.453 34.8086C107.453 35.7292 107.624 36.4401 107.966 36.9414C108.312 37.4427 108.836 37.6934 109.538 37.6934ZM125.821 33.5098C125.821 33.9427 125.771 34.3665 125.671 34.7812C125.575 35.1914 125.427 35.5628 125.227 35.8955C125.026 36.2236 124.775 36.4857 124.475 36.6816C124.178 36.8776 123.827 36.9756 123.422 36.9756C122.998 36.9756 122.661 36.8525 122.41 36.6064C122.16 36.3604 122.009 36.0687 121.959 35.7314H121.897C121.724 36.0915 121.469 36.39 121.132 36.627C120.799 36.8594 120.389 36.9756 119.901 36.9756C119.19 36.9756 118.641 36.7409 118.254 36.2715C117.871 35.7975 117.68 35.1686 117.68 34.3848C117.68 33.7741 117.8 33.234 118.042 32.7646C118.288 32.2907 118.632 31.9193 119.074 31.6504C119.521 31.377 120.047 31.2402 120.653 31.2402C121.059 31.2402 121.453 31.2744 121.836 31.3428C122.219 31.4111 122.524 31.4863 122.752 31.5684L122.615 34.3232C122.611 34.4919 122.606 34.6217 122.602 34.7129C122.597 34.7995 122.595 34.8678 122.595 34.918C122.595 35.4102 122.681 35.7428 122.854 35.916C123.032 36.0846 123.246 36.1689 123.497 36.1689C123.802 36.1689 124.058 36.0505 124.263 35.8135C124.472 35.5719 124.632 35.2507 124.741 34.8496C124.851 34.444 124.905 33.9951 124.905 33.5029C124.905 32.6325 124.73 31.8896 124.379 31.2744C124.028 30.6592 123.543 30.1898 122.923 29.8662C122.308 29.5426 121.599 29.3809 120.797 29.3809C119.999 29.3809 119.291 29.5062 118.671 29.7568C118.056 30.0075 117.534 30.363 117.105 30.8232C116.682 31.279 116.36 31.8213 116.142 32.4502C115.923 33.0791 115.813 33.7741 115.813 34.5352C115.813 35.4648 115.978 36.2555 116.306 36.9072C116.638 37.5589 117.124 38.0557 117.762 38.3975C118.404 38.7347 119.186 38.9033 120.106 38.9033C120.662 38.9033 121.198 38.8418 121.713 38.7188C122.228 38.5957 122.688 38.4567 123.094 38.3018V39.1904C122.693 39.359 122.244 39.4958 121.747 39.6006C121.25 39.71 120.703 39.7646 120.106 39.7646C119.008 39.7646 118.069 39.5573 117.29 39.1426C116.511 38.7324 115.914 38.14 115.499 37.3652C115.084 36.5905 114.877 35.6608 114.877 34.5762C114.877 33.6966 115.011 32.8877 115.28 32.1494C115.554 31.4111 115.946 30.7708 116.456 30.2285C116.971 29.6862 117.593 29.2669 118.322 28.9707C119.056 28.6699 119.881 28.5195 120.797 28.5195C121.777 28.5195 122.643 28.7223 123.395 29.1279C124.151 29.529 124.743 30.1032 125.172 30.8506C125.605 31.5934 125.821 32.4798 125.821 33.5098ZM118.698 34.4121C118.698 35.0182 118.819 35.4626 119.061 35.7451C119.302 36.0277 119.637 36.1689 120.065 36.1689C120.594 36.1689 120.981 35.9707 121.228 35.5742C121.478 35.1777 121.622 34.6536 121.658 34.002L121.74 32.2178C121.608 32.1768 121.446 32.1426 121.255 32.1152C121.068 32.0833 120.872 32.0674 120.667 32.0674C120.198 32.0674 119.817 32.179 119.525 32.4023C119.238 32.6257 119.029 32.915 118.896 33.2705C118.764 33.626 118.698 34.0065 118.698 34.4121ZM130.483 38.6367C129.535 38.6367 128.784 38.3132 128.228 37.666C127.676 37.0189 127.4 36.0573 127.4 34.7812C127.4 33.4915 127.683 32.5186 128.248 31.8623C128.813 31.2015 129.565 30.8711 130.504 30.8711C130.9 30.8711 131.247 30.9235 131.543 31.0283C131.839 31.1331 132.094 31.2744 132.309 31.4521C132.523 31.6253 132.703 31.8236 132.849 32.0469H132.931C132.912 31.9056 132.894 31.7119 132.876 31.4658C132.858 31.2197 132.849 31.0192 132.849 30.8643V27.8633H133.983V38.5H133.067L132.896 37.4336H132.849C132.707 37.6569 132.527 37.8597 132.309 38.042C132.094 38.2243 131.837 38.3701 131.536 38.4795C131.24 38.5843 130.889 38.6367 130.483 38.6367ZM130.661 37.6934C131.463 37.6934 132.031 37.4655 132.363 37.0098C132.696 36.554 132.862 35.8773 132.862 34.9795V34.7744C132.862 33.8219 132.703 33.0905 132.384 32.5801C132.069 32.0697 131.495 31.8145 130.661 31.8145C129.964 31.8145 129.442 32.0833 129.096 32.6211C128.749 33.1543 128.576 33.8835 128.576 34.8086C128.576 35.7292 128.747 36.4401 129.089 36.9414C129.435 37.4427 129.959 37.6934 130.661 37.6934ZM139.274 30.8711C139.912 30.8711 140.459 31.0124 140.915 31.2949C141.371 31.5775 141.719 31.974 141.961 32.4844C142.202 32.9902 142.323 33.5827 142.323 34.2617V34.9658H137.148C137.162 35.8454 137.381 36.5153 137.805 36.9756C138.229 37.4359 138.826 37.666 139.596 37.666C140.07 37.666 140.489 37.6227 140.854 37.5361C141.218 37.4495 141.596 37.3219 141.988 37.1533V38.1514C141.61 38.32 141.234 38.443 140.86 38.5205C140.491 38.598 140.054 38.6367 139.548 38.6367C138.828 38.6367 138.199 38.4909 137.661 38.1992C137.128 37.903 136.713 37.4701 136.417 36.9004C136.121 36.3307 135.973 35.6335 135.973 34.8086C135.973 34.002 136.107 33.3047 136.376 32.7168C136.649 32.1243 137.032 31.6686 137.524 31.3496C138.021 31.0306 138.604 30.8711 139.274 30.8711ZM139.261 31.8008C138.655 31.8008 138.172 31.999 137.812 32.3955C137.451 32.792 137.237 33.3457 137.169 34.0566H141.134C141.129 33.61 141.059 33.2181 140.922 32.8809C140.79 32.5391 140.587 32.2747 140.313 32.0879C140.04 31.8965 139.689 31.8008 139.261 31.8008ZM152.386 30.8711C153.211 30.8711 153.833 31.0876 154.252 31.5205C154.671 31.9489 154.881 32.6393 154.881 33.5918V38.5H153.76V33.6465C153.76 33.0404 153.628 32.5869 153.363 32.2861C153.104 31.9808 152.716 31.8281 152.201 31.8281C151.477 31.8281 150.95 32.0378 150.622 32.457C150.294 32.8763 150.13 33.4938 150.13 34.3096V38.5H149.002V33.6465C149.002 33.2409 148.943 32.9036 148.824 32.6348C148.71 32.3659 148.537 32.1654 148.305 32.0332C148.077 31.8965 147.787 31.8281 147.437 31.8281C146.94 31.8281 146.541 31.9307 146.24 32.1357C145.939 32.3408 145.721 32.6462 145.584 33.0518C145.452 33.4528 145.386 33.9473 145.386 34.5352V38.5H144.251V31.0078H145.167L145.338 32.0674H145.399C145.55 31.8076 145.739 31.5889 145.967 31.4111C146.195 31.2334 146.45 31.099 146.732 31.0078C147.015 30.9167 147.316 30.8711 147.635 30.8711C148.204 30.8711 148.681 30.9782 149.063 31.1924C149.451 31.402 149.731 31.7233 149.904 32.1562H149.966C150.212 31.7233 150.549 31.402 150.978 31.1924C151.406 30.9782 151.875 30.8711 152.386 30.8711ZM163.672 34.7402C163.672 35.3555 163.592 35.9046 163.433 36.3877C163.273 36.8708 163.043 37.2786 162.742 37.6113C162.441 37.944 162.077 38.1992 161.648 38.377C161.225 38.5501 160.744 38.6367 160.206 38.6367C159.705 38.6367 159.244 38.5501 158.825 38.377C158.41 38.1992 158.05 37.944 157.745 37.6113C157.444 37.2786 157.21 36.8708 157.041 36.3877C156.877 35.9046 156.795 35.3555 156.795 34.7402C156.795 33.9199 156.934 33.2227 157.212 32.6484C157.49 32.0697 157.886 31.6299 158.401 31.3291C158.921 31.0238 159.538 30.8711 160.254 30.8711C160.938 30.8711 161.535 31.0238 162.045 31.3291C162.56 31.6344 162.959 32.0765 163.241 32.6553C163.528 33.2295 163.672 33.9245 163.672 34.7402ZM157.971 34.7402C157.971 35.3418 158.05 35.8636 158.21 36.3057C158.369 36.7477 158.616 37.0895 158.948 37.3311C159.281 37.5726 159.709 37.6934 160.233 37.6934C160.753 37.6934 161.179 37.5726 161.512 37.3311C161.849 37.0895 162.097 36.7477 162.257 36.3057C162.416 35.8636 162.496 35.3418 162.496 34.7402C162.496 34.1432 162.416 33.6283 162.257 33.1953C162.097 32.7578 161.851 32.4206 161.519 32.1836C161.186 31.9466 160.755 31.8281 160.227 31.8281C159.447 31.8281 158.875 32.0856 158.511 32.6006C158.151 33.1156 157.971 33.8288 157.971 34.7402ZM165.463 37.7891C165.463 37.4701 165.54 37.2445 165.695 37.1123C165.85 36.9756 166.039 36.9072 166.263 36.9072C166.495 36.9072 166.691 36.9756 166.851 37.1123C167.01 37.2445 167.09 37.4701 167.09 37.7891C167.09 38.1035 167.01 38.3337 166.851 38.4795C166.691 38.6208 166.495 38.6914 166.263 38.6914C166.039 38.6914 165.85 38.6208 165.695 38.4795C165.54 38.3337 165.463 38.1035 165.463 37.7891ZM172.312 38.6367C171.638 38.6367 171.043 38.4977 170.528 38.2197C170.013 37.9417 169.612 37.5179 169.325 36.9482C169.038 36.3786 168.895 35.6608 168.895 34.7949C168.895 33.888 169.045 33.1475 169.346 32.5732C169.651 31.9945 170.07 31.5661 170.604 31.2881C171.137 31.0101 171.743 30.8711 172.422 30.8711C172.796 30.8711 173.156 30.9098 173.502 30.9873C173.853 31.0602 174.14 31.1536 174.363 31.2676L174.021 32.2178C173.794 32.1266 173.529 32.0446 173.229 31.9717C172.932 31.8988 172.654 31.8623 172.395 31.8623C171.875 31.8623 171.442 31.974 171.096 32.1973C170.754 32.4206 170.496 32.7487 170.323 33.1816C170.155 33.6146 170.07 34.1478 170.07 34.7812C170.07 35.3874 170.152 35.9046 170.316 36.333C170.485 36.7614 170.733 37.0895 171.062 37.3174C171.394 37.5407 171.809 37.6523 172.306 37.6523C172.702 37.6523 173.06 37.6113 173.379 37.5293C173.698 37.4427 173.987 37.3424 174.247 37.2285V38.2402C173.996 38.3678 173.716 38.4658 173.406 38.5342C173.101 38.6025 172.736 38.6367 172.312 38.6367ZM182.484 34.7402C182.484 35.3555 182.405 35.9046 182.245 36.3877C182.086 36.8708 181.855 37.2786 181.555 37.6113C181.254 37.944 180.889 38.1992 180.461 38.377C180.037 38.5501 179.556 38.6367 179.019 38.6367C178.517 38.6367 178.057 38.5501 177.638 38.377C177.223 38.1992 176.863 37.944 176.558 37.6113C176.257 37.2786 176.022 36.8708 175.854 36.3877C175.689 35.9046 175.607 35.3555 175.607 34.7402C175.607 33.9199 175.746 33.2227 176.024 32.6484C176.302 32.0697 176.699 31.6299 177.214 31.3291C177.733 31.0238 178.351 30.8711 179.066 30.8711C179.75 30.8711 180.347 31.0238 180.857 31.3291C181.372 31.6344 181.771 32.0765 182.054 32.6553C182.341 33.2295 182.484 33.9245 182.484 34.7402ZM176.783 34.7402C176.783 35.3418 176.863 35.8636 177.022 36.3057C177.182 36.7477 177.428 37.0895 177.761 37.3311C178.093 37.5726 178.522 37.6934 179.046 37.6934C179.565 37.6934 179.992 37.5726 180.324 37.3311C180.661 37.0895 180.91 36.7477 181.069 36.3057C181.229 35.8636 181.309 35.3418 181.309 34.7402C181.309 34.1432 181.229 33.6283 181.069 33.1953C180.91 32.7578 180.664 32.4206 180.331 32.1836C179.998 31.9466 179.568 31.8281 179.039 31.8281C178.26 31.8281 177.688 32.0856 177.323 32.6006C176.963 33.1156 176.783 33.8288 176.783 34.7402ZM192.581 30.8711C193.406 30.8711 194.028 31.0876 194.447 31.5205C194.867 31.9489 195.076 32.6393 195.076 33.5918V38.5H193.955V33.6465C193.955 33.0404 193.823 32.5869 193.559 32.2861C193.299 31.9808 192.911 31.8281 192.396 31.8281C191.672 31.8281 191.146 32.0378 190.817 32.457C190.489 32.8763 190.325 33.4938 190.325 34.3096V38.5H189.197V33.6465C189.197 33.2409 189.138 32.9036 189.02 32.6348C188.906 32.3659 188.732 32.1654 188.5 32.0332C188.272 31.8965 187.983 31.8281 187.632 31.8281C187.135 31.8281 186.736 31.9307 186.436 32.1357C186.135 32.3408 185.916 32.6462 185.779 33.0518C185.647 33.4528 185.581 33.9473 185.581 34.5352V38.5H184.446V31.0078H185.362L185.533 32.0674H185.595C185.745 31.8076 185.934 31.5889 186.162 31.4111C186.39 31.2334 186.645 31.099 186.928 31.0078C187.21 30.9167 187.511 30.8711 187.83 30.8711C188.4 30.8711 188.876 30.9782 189.259 31.1924C189.646 31.402 189.926 31.7233 190.1 32.1562H190.161C190.407 31.7233 190.744 31.402 191.173 31.1924C191.601 30.9782 192.071 30.8711 192.581 30.8711Z" fill="#C0BFBD"/>
</svg>
